{"verses":[{"id":8,"verse_number":1,"verse_key":"2:1","hizb_number":1,"rub_el_hizb_number":1,"ruku_number":2,"manzil_number":1,"sajdah_number":null,"page_number":2,"juz_number":1}],"pagination":{"per_page":1,"current_page":1,"next_page":2,"total_pages":286,"total_records":286}}
